{
  "lists": [
    {
      "name": "Спорт",
      "colorId": 2,
      "id": 2
    },
    {
      "name": "Фільми і серіали",
      "colorId": 6,
      "id": 3
    },
    {
      "name": "cars",
      "colorId": 4,
      "id": 4
    },
    {
      "name": "body",
      "colorId": 8,
      "id": 5
    },
    {
      "name": "dsds",
      "colorId": 3,
      "id": 6
    },
    {
      "name": "fsd",
      "colorId": 4,
      "id": 7
    }
  ],
  "tasks": [
    {
      "listId": 2,
      "text": "football",
      "completed": false,
      "id": 15
    },
    {
      "listId": 3,
      "text": "Sport",
      "completed": false,
      "id": 16
    },
    {
      "listId": 4,
      "text": "Audi S5",
      "completed": false,
      "id": 17
    },
    {
      "listId": 5,
      "text": "simple",
      "completed": false,
      "id": 18
    },
    {
      "listId": 5,
      "text": "qwer",
      "completed": false,
      "id": 19
    },
    {
      "listId": 5,
      "text": "sdsd",
      "completed": false,
      "id": 20
    },
    {
      "listId": 7,
      "text": "sdsd",
      "completed": false,
      "id": 21
    }
  ],
  "colors": [
    {
      "id": 1,
      "hex": "#C9D1D3",
      "name": "grey"
    },
    {
      "id": 2,
      "hex": "#42B883",
      "name": "green"
    },
    {
      "id": 3,
      "hex": "#64C4ED",
      "name": "blue"
    },
    {
      "id": 4,
      "hex": "#FFBBCC",
      "name": "pink"
    },
    {
      "id": 5,
      "hex": "#B6E6BD",
      "name": "lime"
    },
    {
      "id": 6,
      "hex": "#C355F5",
      "name": "purple"
    },
    {
      "id": 7,
      "hex": "#110133",
      "name": "black"
    },
    {
      "id": 8,
      "hex": "#FF6464",
      "name": "red"
    }
  ]
}